…
Today, a graph is defined as an ordered pair $G=(V,E)$, with $V$ a set of vertices (nodes or points) and $E \subseteq \{\{x, y\} | (x, y) ∈ \mathrm{V}^2 \land x \ne y\}$ a set of edges (links or lines) which are either an unordered pair for **undirected graphs** or an ordered pair for **directed graphs**. The former describing links where the direction does not matter and the latter linked where it does.

As a simple example, we can use the `highschool` dataset from the `ggraph` package which tracks friendship among high school boys,

```{r}
library(ggraph)
library(igraph)

highschool
```
```
# A tibble: 506 x 3
    from    to  year
   <dbl> <dbl> <dbl>
 1     1    14  1957
 2     1    15  1957
 3     1    21  1957
 4     1    54  1957
 5     1    55  1957
 6     2    21  1957
 7     2    22  1957
 8     3     9  1957
 9     3    15  1957
10     4     5  1957
# … with 496 more rows
```
…
