…
## Observations: ??
## Variables: 10
## Database: spark_connection
## $ essay0 <chr> "about me:<br />\n<br />\ni would love to think that…
## $ essay1 <chr> "currently working as an international agent for a f…
## $ essay2 <chr> "making people laugh.<br />\nranting about a good sa…
## $ essay3 <chr> "the way i look. i am a six foot half asian, half ca…
## $ essay4 <chr> "books:<br />\nabsurdistan, the republic, of mice an…
## $ essay5 <chr> "food.<br />\nwater.<br />\ncell phone.<br />\nshelt…
## $ essay6 <chr> "duality and humorous things", "missing", "missing",…
## $ essay7 <chr> "trying to find someone to hang out with. i am down …
## $ essay8 <chr> "i am new to california and looking for someone to w…
## $ essay9 <chr> "you want to be swept off your feet!<br />\nyou are …
### Topic Modeling
## # A tibble: 256,992 x 3
##    topic term      beta
##    <int> <chr>    <dbl>
##  1     0 know      303.
##  2     0 work      250.
##  3     0 want      367.
##  4     0 books     211.
##  5     0 family    213.
##  6     0 think     291.
##  7     0 going     160.
##  8     0 anything  292.
##  9     0 enjoy     145.
## 10     0 much      272.
## # … with 256,982 more rows
## Conclusion
…
