Chapter 4 Modeling | Mastering Apache Spark with R
…
stop_words <- ml_default_stop_words(sc) %>%
  c(
    "like", "love", "good", "music", "friends", "people", "life",
    "time", "things", "food", "really", "also", "movies"
  )

lda_model <-  ml_lda(essays, ~ words, k = 6, max_iter = 1, min_token_length = 4, 
                     stop_words = stop_words, min_df = 5)

We are also including a stop_words vector consisting of commonly used English words and common words in our dataset, which tells the algorithm to ignore them. After the model is fit, we can use the tidy() function to extract the associated betas, which are the per-topic-per-word probabilities, from the model.

betas <- tidy(lda_model)
betas

# A tibble: 256,992 x 3
   topic term      beta
   <int> <chr>    <dbl>
 1     0 know      303.
 2     0 work      250.
 3     0 want      367.
 4     0 books     211.
 5     0 family    213.
 6     0 think     291.
 7     0 going     160.
 8     0 anything  292.
 9     0 enjoy     145.
10     0 much      272.
# … with 256,982 more rows
…
