Chapter 12 Streaming | Mastering Apache Spark with R
…
file.info(file.path("source", list.files("source")))[1] 

##                     size
## source/stream_1.csv   44
## source/stream_2.csv  121
## source/stream_3.csv  540
## source/stream_4.csv 2370
## source/stream_5.csv 7236

The stream_generate_test() by default will create a single numeric variable data frame.

readr::read_csv("source/stream_5.csv")

## # A tibble: 1,489 x 1
##        x
##    <dbl>
##  1   630
##  2   631
##  3   632
##  4   633
##  5   634
##  6   635
##  7   636
##  8   637
##  9   638
## 10   639
## # ... with 1,479 more rows
…
